# mkinitcpio preset file for the 'linux-libre-grsec' package

ALL_config="/etc/mkinitcpio.conf"
ALL_kver="/boot/vmlinuz-linux-libre-grsec"

PRESETS=('default' 'fallback')

#default_config="/etc/mkinitcpio.conf"
default_image="/boot/initramfs-linux-libre-grsec.img"
#default_options=""

#fallback_config="/etc/mkinitcpio.conf"
fallback_image="/boot/initramfs-linux-libre-grsec-fallback.img" 
fallback_options="-S autodetect"
